<svg width="300" height="200" viewBox="0 0 300 200" fill="none" xmlns="http://www.w3.org/2000/svg">
<path fill-rule="evenodd" clip-rule="evenodd" d="M106.539 106.638C105.653 106.638 104.808 107.006 104.205 107.655C100.456 111.689 86.4518 126.76 78.5479 135.264C77.6577 136.223 76.2698 136.539 75.0512 136.061C73.8314 135.584 73.0298 134.41 73.0298 133.102C73.0298 125.675 73.0298 115.059 73.0298 109.816C73.0298 108.974 72.6946 108.165 72.097 107.569C71.5006 106.972 70.69 106.638 69.8458 106.638C68.0307 106.638 65.6529 106.638 63.294 106.638C60.8287 106.638 58.4654 105.661 56.7221 103.92C54.9787 102.181 54 99.8203 54 97.3591C54 82.2279 54 52.4098 54 37.2786C54 32.1536 58.1616 28 63.294 28C92.434 28 181.8 28 210.94 28C216.073 28 220.234 32.1536 220.234 37.2786C220.234 52.4098 220.234 82.2279 220.234 97.3591C220.234 102.484 216.073 106.638 210.94 106.638C185.717 106.638 117.157 106.638 106.539 106.638Z" fill="var(--colors-category-french-high1)"/>
<path d="M93.0488 80.6978L90.662 88.5482L78.0371 88.5885L92.1508 45.8005L104.832 45.7603L119.222 88.4565L106.597 88.4968L104.159 80.662L93.0488 80.6978ZM98.3607 57.433C98.2149 58.4414 97.9941 59.7028 97.6992 61.216C97.4055 62.7293 97.0916 64.0847 96.7586 65.2812L95.0399 71.5042L102.11 71.4818L100.407 65.2689C100.066 64.0377 99.734 62.6666 99.4111 61.1545C99.0883 59.6435 98.8685 58.4022 98.753 57.4318L98.3607 57.433Z" fill="var(--colors-category-french-low2)"/>
<path d="M142.651 45.6383C147.027 45.6249 150.397 46.5751 152.76 48.4913C155.122 50.4063 156.31 53.1384 156.322 56.6865C156.33 59.188 155.766 61.2251 154.63 62.7976C153.493 64.3702 151.768 65.4961 149.451 66.1755V66.2875C152.108 66.6893 154.215 67.757 155.774 69.4885C157.332 71.22 158.115 73.3365 158.122 75.8392C158.136 79.9088 156.705 83.0136 153.832 85.1514C150.959 87.2892 146.754 88.367 141.217 88.3849L124.833 88.4375L124.695 45.6965L142.651 45.6383ZM136.98 62.0701L140.403 62.0589C141.675 62.0555 142.638 61.7444 143.29 61.1254C143.943 60.5076 144.267 59.601 144.263 58.4057C144.259 57.2484 143.929 56.3809 143.272 55.8034C142.616 55.227 141.652 54.9404 140.38 54.9449L136.957 54.9561L136.98 62.0701ZM137.035 79.0996L141.412 79.085C142.834 79.0805 143.955 78.7134 144.776 77.9826C145.596 77.2517 146.004 76.2511 146 74.9818C145.996 73.8615 145.582 72.975 144.757 72.3247C143.931 71.6733 142.79 71.351 141.33 71.3554L137.011 71.3689L137.035 79.0996Z" fill="var(--colors-category-french-low2)"/>
<path d="M175.937 66.874C175.949 70.7208 176.707 73.613 178.209 75.5504C179.713 77.4867 181.959 78.4504 184.953 78.4415C186.86 78.4347 188.804 78.1113 190.785 77.47C192.766 76.8286 194.558 75.9455 196.163 74.8196L196.197 85.5756C194.406 86.6266 192.351 87.4268 190.034 87.9764C187.715 88.5248 185.304 88.8035 182.798 88.8114C176.924 88.8304 172.28 86.8471 168.862 82.8625C165.445 78.878 163.727 73.5794 163.705 66.9702C163.683 60.248 165.471 54.9013 169.068 50.9313C172.665 46.9613 177.643 44.9657 184.002 44.9455C186.246 44.9377 188.333 45.1459 190.261 45.5689C192.188 45.992 194.033 46.6311 195.794 47.484L195.83 58.5198C194.179 57.367 192.522 56.5321 190.855 56.015C189.189 55.4967 187.309 55.2415 185.214 55.2483C182.034 55.2595 179.69 56.2187 178.181 58.1281C176.672 60.0376 175.924 62.9532 175.937 66.874Z" fill="var(--colors-category-french-low2)"/>
<path d="M194.996 172C223.014 172 245.728 149.324 245.728 121.352C245.728 93.3807 223.014 70.7051 194.996 70.7051C166.978 70.7051 144.265 93.3807 144.265 121.352C144.265 149.324 166.978 172 194.996 172Z" fill="var(--colors-category-french-high2)"/>
<path d="M210.543 107.384C210.543 108.937 210.166 110.455 209.411 111.941C208.656 113.426 207.035 115.41 204.547 117.894C202.149 120.333 200.572 122.272 199.817 123.714C199.062 125.155 198.684 126.63 198.684 128.137H186.492C186.448 126.097 186.903 124.102 187.857 122.15C188.812 120.2 190.734 117.806 193.621 114.967C195.175 113.371 196.175 112.241 196.619 111.575C197.063 110.91 197.285 110.289 197.285 109.712C197.285 108.471 196.818 107.562 195.885 106.986C194.953 106.409 193.532 106.121 191.622 106.121C189.712 106.121 187.813 106.42 185.925 107.019C184.038 107.617 182.095 108.538 180.096 109.779V98.2723C181.961 97.3411 184.149 96.5867 186.659 96.0103C189.168 95.4339 191.556 95.1462 193.82 95.1462C199.328 95.1462 203.492 96.1771 206.313 98.2387C209.134 100.3 210.543 103.349 210.543 107.384ZM201.216 139.778C201.216 141.994 200.438 143.846 198.884 145.331C197.329 146.817 195.419 147.56 193.154 147.56C190.8 147.56 188.846 146.817 187.291 145.331C185.737 143.846 184.959 141.994 184.959 139.778C184.959 137.56 185.748 135.719 187.325 134.256C188.901 132.793 190.845 132.061 193.154 132.061C195.419 132.061 197.329 132.793 198.884 134.256C200.438 135.719 201.216 137.56 201.216 139.778Z" fill="var(--colors-category-french-low2)"/>
</svg>
